[
  {
    "model": "lawbreakers.privacyeraser",
    "pk": 1,
    "fields": {
      "name": "NRK-kantina",
      "companyid": "976390512",
      "comment": "",
      "reporter": 1,
      "location": "SRID=4326;POINT (10.718965 59.935404)"
    }
  },
  {
    "model": "lawbreakers.privacyeraser",
    "pk": 2,
    "fields": {
      "name": "Eurest Kantine Gjerdrums vei 8",
      "companyid": "952507729",
      "comment": "",
      "reporter": 1,
      "location": "SRID=4326;POINT (10.764885 59.953871)"
    }
  },
  {
    "model": "lawbreakers.privacyeraser",
    "pk": 3,
    "fields": {
      "name": "Holmenkollen restaurant",
      "companyid": "989502581",
      "comment": "https://www.nettavisen.no/na24/denne-restauranten-nekter-a-ta-imot-kontantene-dine/8470233.html",
      "reporter": 1,
      "location": "SRID=4326;POINT (10.667038 59.960532)"
    }
  },
  {
    "model": "lawbreakers.privacyeraser",
    "pk": 4,
    "fields": {
      "location": "SRID=4326;POINT (8.126181000000001 58.171228)",
      "name": "Aleris Sørlandsparken",
      "companyid": "943545634",
      "comment": "",
      "reporter": 1
    }
  }
]
